<?xml version="1.0" encoding="UTF-8" standalone="no"?>
<svg
   xmlns:dc="http://purl.org/dc/elements/1.1/"
   xmlns:cc="http://creativecommons.org/ns#"
   xmlns:rdf="http://www.w3.org/1999/02/22-rdf-syntax-ns#"
   xmlns:svg="http://www.w3.org/2000/svg"
   xmlns="http://www.w3.org/2000/svg"
   id="svg5151"
   version="1.1"
   height="624.96997"
   width="766.25897"
   y="0px"
   x="0px"
   viewBox="0 0 766.25897 624.96997">
  <metadata
     id="metadata5157">
    <rdf:RDF>
      <cc:Work
         rdf:about="">
        <dc:format>image/svg+xml</dc:format>
        <dc:type
           rdf:resource="http://purl.org/dc/dcmitype/StillImage" />
        <dc:title></dc:title>
      </cc:Work>
    </rdf:RDF>
  </metadata>
  <defs
     id="defs5155" />
  <g
     transform="translate(-104.583,-154.607)"
     id="g5149"
     style="isolation:isolate">
    <g
       data-name="Layer 1"
       id="Layer_1">
      <path
         style="fill:#78c199"
         id="path4918"
         d="m 217.688,317.987 h -61.862 a 3,3 0 1 1 0,-6 h 58.862 v -27.931 a 3,3 0 0 1 6,0 v 30.931 a 3,3 0 0 1 -3,3 z" />
      <path
         style="fill:#78c199"
         id="path4920"
         d="m 279.55,317.987 h -61.862 a 3,3 0 0 1 -3,-3 v -30.931 a 3,3 0 0 1 6,0 v 27.931 h 58.862 a 3,3 0 0 1 0,6 z" />
      <path
         style="fill:#78c199"
         id="path4922"
         d="m 248.619,348.917 h -61.862 a 3,3 0 0 1 -3,-3 v -30.93 a 3,3 0 0 1 3,-3 h 61.862 a 3,3 0 0 1 3,3 v 30.93 a 3,3 0 0 1 -3,3 z m -58.862,-6 h 55.862 v -24.93 h -55.862 z" />
      <path
         style="fill:#78c199"
         id="path4924"
         d="m 235.266,379.849 h -17.578 a 3,3 0 0 1 -3,-3 v -30.932 a 3,3 0 0 1 3,-3 h 61.862 a 3,3 0 0 1 0,6 h -58.862 v 24.932 h 14.578 a 3,3 0 1 1 0,6 z" />
      <path
         style="fill:#78c199"
         id="path4926"
         d="m 217.688,379.849 h -50.162 a 3,3 0 0 1 0,-6 h 47.162 v -24.932 h -58.862 a 3,3 0 1 1 0,-6 h 61.862 a 3,3 0 0 1 3,3 v 30.932 a 3,3 0 0 1 -3,3 z" />
      <path
         style="fill:#78c199"
         id="path4928"
         d="m 186.757,348.917 h -30.931 a 3,3 0 1 1 0,-6 h 27.931 v -24.93 h -49.018 a 3,3 0 1 1 0,-6 h 52.018 a 3,3 0 0 1 3,3 v 30.93 a 3,3 0 0 1 -3,3 z" />
      <path
         style="fill:#78c199"
         id="path4930"
         d="m 293.261,348.917 h -44.642 a 3,3 0 0 1 -3,-3 v -30.93 a 3,3 0 0 1 3,-3 h 21.443 a 3,3 0 0 1 0,6 h -18.443 v 24.93 h 41.642 a 3,3 0 0 1 0,6 z" />
      <path
         style="fill:#78c199"
         id="path4932"
         d="m 792.27,428.64 h -61.863 a 3,3 0 0 1 0,-6 h 58.863 v -27.931 a 3,3 0 0 1 6,0 v 30.931 a 3,3 0 0 1 -3,3 z" />
      <path
         style="fill:#78c199"
         id="path4934"
         d="M 854.131,428.64 H 792.27 a 3,3 0 0 1 -3,-3 v -30.931 a 3,3 0 0 1 6,0 v 27.931 h 58.861 a 3,3 0 0 1 0,6 z" />
      <path
         style="fill:#78c199"
         id="path4936"
         d="m 823.2,459.571 h -61.862 a 3,3 0 0 1 -3,-3 V 425.64 a 3,3 0 0 1 3,-3 H 823.2 a 3,3 0 0 1 3,3 v 30.931 a 3,3 0 0 1 -3,3 z m -58.862,-6 H 820.2 V 428.64 h -55.862 z" />
      <path
         style="fill:#78c199"
         id="path4938"
         d="M 809.847,490.5 H 792.27 a 3,3 0 0 1 -3,-3 v -30.929 a 3,3 0 0 1 3,-3 h 61.861 a 3,3 0 0 1 0,6 H 795.27 V 484.5 h 14.577 a 3,3 0 0 1 0,6 z" />
      <path
         style="fill:#78c199"
         id="path4940"
         d="m 792.27,490.5 h -50.164 a 3,3 0 0 1 0,-6 h 47.164 v -24.929 h -58.863 a 3,3 0 0 1 0,-6 h 61.863 a 3,3 0 0 1 3,3 V 487.5 a 3,3 0 0 1 -3,3 z" />
      <path
         style="fill:#8dc6bf"
         id="path4942"
         d="m 761.338,459.571 h -30.931 a 3,3 0 0 1 0,-6 h 27.931 V 428.64 H 709.32 a 3,3 0 0 1 0,-6 h 52.018 a 3,3 0 0 1 3,3 v 30.931 a 3,3 0 0 1 -3,3 z" />
      <path
         style="fill:#78c199"
         id="path4944"
         d="M 867.842,459.571 H 823.2 a 3,3 0 0 1 -3,-3 V 425.64 a 3,3 0 0 1 3,-3 h 21.444 a 3,3 0 0 1 0,6 H 826.2 v 24.931 h 41.642 a 3,3 0 0 1 0,6 z" />
      <path
         style="fill:#1d2f3d"
         id="path4946"
         d="m 862,731 h -25 a 5,5 0 0 1 0,-10 h 25 a 5,5 0 0 1 0,10 z" />
      <path
         style="fill:#1d2f3d"
         id="path4948"
         d="M 814.083,731 H 429.667 a 5,5 0 1 1 0,-10 h 384.416 a 5,5 0 1 1 0,10 z" />
      <path
         style="fill:#1d2f3d"
         id="path4950"
         d="m 414.333,731 h -19.166 a 5,5 0 1 1 0,-10 h 19.166 a 5,5 0 1 1 0,10 z" />
      <path
         style="fill:#1d2f3d"
         id="path4952"
         d="M 378,731 H 109.583 a 5,5 0 1 1 0,-10 H 378 a 5,5 0 0 1 0,10 z" />
      <path
         style="fill:#1d2f3d"
         id="path4954"
         d="m 772,730.962 h -36 a 5,5 0 0 1 -5,-5 v -24 a 5,5 0 0 1 5,-5 h 36 a 5,5 0 0 1 5,5 v 24 a 5,5 0 0 1 -5,5 z m -31,-10 h 26 v -14 h -26 z" />
      <rect
         style="fill:#1d2f3d"
         id="rect4956"
         height="24"
         width="36"
         y="701.96198"
         x="736" />
      <path
         style="fill:#1d2f3d"
         id="path4958"
         d="m 264,730.962 h -36 a 5,5 0 0 1 -5,-5 v -24 a 5,5 0 0 1 5,-5 h 36 a 5,5 0 0 1 5,5 v 24 a 5,5 0 0 1 -5,5 z m -31,-10 h 26 v -14 h -26 z" />
      <rect
         style="fill:#1d2f3d"
         id="rect4960"
         height="24"
         width="36"
         y="701.96198"
         x="228" />
      <rect
         style="fill:#e7e0d0"
         id="rect4962"
         height="28"
         width="628.16602"
         y="673.96198"
         x="185.91701" />
      <path
         style="fill:#1d2f3d"
         id="path4964"
         d="M 814.083,706.962 H 185.917 a 5,5 0 0 1 -5,-5 v -28 a 5,5 0 0 1 5,-5 h 628.166 a 5,5 0 0 1 5,5 v 28 a 5,5 0 0 1 -5,5 z m -623.166,-10 h 618.166 v -18 H 190.917 Z" />
      <rect
         style="fill:#e7e0d0"
         id="rect4966"
         height="18"
         width="628.16602"
         y="527.96198"
         x="185.91701" />
      <path
         style="fill:#1d2f3d"
         id="path4968"
         d="M 814.083,550.962 H 185.917 a 5,5 0 0 1 -5,-5 v -18 a 5,5 0 0 1 5,-5 h 628.166 a 5,5 0 0 1 5,5 v 18 a 5,5 0 0 1 -5,5 z m -623.166,-10 h 618.166 v -8 H 190.917 Z" />
      <rect
         style="fill:#e7e0d0"
         id="rect4970"
         height="128"
         width="300"
         y="545.96198"
         x="500" />
      <path
         style="fill:#1d2f3d"
         id="path4972"
         d="M 800,678.962 H 500 a 5,5 0 0 1 -5,-5 v -128 a 5,5 0 0 1 5,-5 h 300 a 5,5 0 0 1 5,5 v 128 a 5,5 0 0 1 -5,5 z m -295,-10 h 290 v -118 H 505 Z" />
      <polygon
         style="opacity:0.23000004;fill:#1d2f3d"
         id="polygon4974"
         points="500,545.962 500,571.851 500,673.962 528.776,673.962 528.776,571.851 800,571.851 800,545.962 528.776,545.962 " />
      <rect
         style="fill:#fe615a"
         id="rect4976"
         height="64"
         width="300"
         y="545.96198"
         x="200" />
      <rect
         style="fill:#ef4d4d"
         id="rect4978"
         height="64"
         width="300"
         y="545.96198"
         x="200" />
      <rect
         style="opacity:0.23000004;fill:#1d2f3d"
         id="rect4980"
         height="9.6289997"
         width="300"
         y="600.33301"
         x="200" />
      <rect
         style="opacity:0.23000004;fill:#1d2f3d"
         id="rect4982"
         height="21.705"
         width="300"
         y="545.96198"
         x="200" />
      <path
         style="fill:#1d2f3d"
         id="path4984"
         d="M 500,614.962 H 200 a 5,5 0 0 1 -5,-5 v -64 a 5,5 0 0 1 5,-5 h 300 a 5,5 0 0 1 5,5 v 64 a 5,5 0 0 1 -5,5 z m -295,-10 h 290 v -54 H 205 Z" />
      <rect
         style="fill:#ef4d4d"
         id="rect4986"
         height="64"
         width="300"
         y="609.96198"
         x="200" />
      <rect
         style="opacity:0.23000004;fill:#1d2f3d"
         id="rect4988"
         height="9.6289997"
         width="300"
         y="664.88397"
         x="200" />
      <rect
         id="rect4990"
         style="mix-blend-mode:screen;fill:#1d2f3d"
         height="9.6289997"
         width="300"
         y="610.07898"
         x="200" />
      <path
         style="fill:#1d2f3d"
         id="path4992"
         d="M 500,678.962 H 200 a 5,5 0 0 1 -5,-5 v -64 a 5,5 0 0 1 5,-5 h 300 a 5,5 0 0 1 5,5 v 64 a 5,5 0 0 1 -5,5 z m -295,-10 h 290 v -54 H 205 Z" />
      <rect
         style="fill:#e7e0d0"
         id="rect4994"
         height="128"
         width="14"
         y="545.96198"
         x="200" />
      <path
         style="fill:#1d2f3d"
         id="path4996"
         d="m 214,678.962 h -14 a 5,5 0 0 1 -5,-5 v -128 a 5,5 0 0 1 5,-5 h 14 a 5,5 0 0 1 5,5 v 128 a 5,5 0 0 1 -5,5 z m -9,-10 h 4 v -118 h -4 z" />
      <rect
         style="fill:#e7e0d0"
         id="rect4998"
         height="128"
         width="14"
         y="545.96198"
         x="493" />
      <path
         style="fill:#1d2f3d"
         id="path5000"
         d="m 507,678.962 h -14 a 5,5 0 0 1 -5,-5 v -128 a 5,5 0 0 1 5,-5 h 14 a 5,5 0 0 1 5,5 v 128 a 5,5 0 0 1 -5,5 z m -9,-10 h 4 v -118 h -4 z" />
      <path
         style="fill:#1d2f3d"
         id="path5002"
         d="m 802.581,678.962 h -14 a 5,5 0 0 1 -5,-5 v -128 a 5,5 0 0 1 5,-5 h 14 a 5,5 0 0 1 5,5 v 128 a 5,5 0 0 1 -5,5 z m -9,-10 h 4 v -118 h -4 z" />
      <rect
         style="fill:#938f8f"
         id="rect5004"
         height="39"
         width="162.125"
         y="488.96201"
         x="516.875" />
      <rect
         id="rect5006"
         style="opacity:0.5699999;mix-blend-mode:multiply;fill:#938f8f"
         height="8.2950001"
         width="162.125"
         y="519.66699"
         x="516.875" />
      <rect
         id="rect5008"
         style="opacity:0.55;mix-blend-mode:screen;fill:#aaaaaa"
         height="8.3710003"
         width="162.125"
         y="488.96201"
         x="516.875" />
      <path
         style="fill:#1d2f3d"
         id="path5010"
         d="M 679,532.962 H 516.875 a 5,5 0 0 1 -5,-5 v -39 a 5,5 0 0 1 5,-5 H 679 a 5,5 0 0 1 5,5 v 39 a 5,5 0 0 1 -5,5 z m -157.125,-10 H 674 v -29 H 521.875 Z" />
      <path
         style="fill:#1d2f3d"
         id="path5012"
         d="m 648.188,506.462 h -64.25 a 2,2 0 0 1 0,-4 h 64.25 a 2,2 0 1 1 0,4 z" />
      <path
         style="fill:#1d2f3d"
         id="path5014"
         d="m 616.062,514.462 h -32.124 a 2,2 0 0 1 0,-4 h 32.124 a 2,2 0 0 1 0,4 z" />
      <circle
         style="fill:#e7e0d0"
         id="circle5016"
         r="7"
         cy="508.46201"
         cx="548.133" />
      <path
         style="fill:#1d2f3d"
         id="path5018"
         d="m 548.133,517.462 a 9,9 0 1 1 9,-9 9.01,9.01 0 0 1 -9,9 z m 0,-14 a 5,5 0 1 0 5,5 5.006,5.006 0 0 0 -5,-5 z" />
      <rect
         style="fill:#546672"
         id="rect5020"
         rx="16"
         height="204.972"
         width="343.875"
         y="260.056"
         x="428.06299" />
      <path
         id="path5022"
         style="opacity:0.6800001;mix-blend-mode:overlay;fill:#546672"
         d="M 755.937,453.1 H 444.062 a 16,16 0 0 1 -16,-16 v 11.925 a 16,16 0 0 0 16,16 h 311.875 a 16,16 0 0 0 16,-16 V 437.1 a 16,16 0 0 1 -16,16 z" />
      <path
         id="path5024"
         style="opacity:0.81000001;mix-blend-mode:screen;fill:#546672"
         d="M 755.937,259.056 H 444.062 a 16,16 0 0 0 -16,16 v 9 a 16,16 0 0 1 16,-16 h 311.875 a 16,16 0 0 1 16,16 v -9 a 16,16 0 0 0 -16,-16 z" />
      <rect
         style="fill:#1d2f3d"
         id="rect5026"
         transform="rotate(90,600,355.523)"
         rx="9.8079996"
         height="310.73401"
         width="160.87801"
         y="200.15601"
         x="519.56097" />
      <path
         style="fill:#1d2f3d"
         id="path5028"
         d="M 755.938,470.028 H 444.062 a 21.024,21.024 0 0 1 -21,-21 V 276.056 a 21.024,21.024 0 0 1 21,-21 h 311.876 a 21.024,21.024 0 0 1 21,21 v 172.972 a 21.024,21.024 0 0 1 -21,21 z M 444.062,265.056 a 11.012,11.012 0 0 0 -11,11 v 172.972 a 11.013,11.013 0 0 0 11,11 h 311.876 a 11.013,11.013 0 0 0 11,-11 V 276.056 a 11.012,11.012 0 0 0 -11,-11 z" />
      <ellipse
         style="opacity:0.12999998;fill:#d1e3ed"
         id="ellipse5030"
         ry="7.6440001"
         rx="7.5"
         cy="447.66699"
         cx="600" />
      <ellipse
         style="fill:#1d2f3d"
         id="ellipse5032"
         ry="6.5609999"
         rx="6.4369998"
         cy="447.66699"
         cx="600" />
      <circle
         style="fill:#61ba4f"
         id="circle5034"
         r="13.224"
         cy="596.85498"
         cx="569.276" />
      <path
         style="fill:#1d2f3d"
         id="path5036"
         d="m 569.275,615.079 a 18.224,18.224 0 1 1 18.225,-18.224 18.244,18.244 0 0 1 -18.225,18.224 z m 0,-26.447 a 8.224,8.224 0 1 0 8.224,8.223 8.233,8.233 0 0 0 -8.224,-8.223 z" />
      <path
         style="fill:#61ba4f"
         id="path5038"
         d="m 558.086,576.071 c -3.38,-5.626 -9.92,-5.626 -13.3,0 -4.427,7.367 -7.19,17.815 -7.19,29.4 0,16.646 5.7,30.936 13.84,37.127 8.14,-6.191 13.84,-20.481 13.84,-37.127 0,-11.585 -2.763,-22.033 -7.19,-29.4 z" />
      <path
         style="fill:#1d2f3d"
         id="path5040"
         d="m 551.436,647.6 a 4.991,4.991 0 0 1 -3.028,-1.021 c -9.753,-7.419 -15.812,-23.17 -15.812,-41.106 0,-12.138 2.806,-23.5 7.9,-31.98 a 12.925,12.925 0 0 1 10.937,-6.645 v 0 a 12.924,12.924 0 0 1 10.935,6.644 v 0 c 5.1,8.484 7.9,19.841 7.9,31.981 0,17.937 -6.059,33.688 -15.813,41.106 a 4.986,4.986 0 0 1 -3.019,1.021 z m 0,-70.752 a 3.1,3.1 0 0 0 -2.365,1.795 c -4.115,6.85 -6.475,16.629 -6.475,26.83 0,12.264 3.446,23.729 8.84,30.208 5.393,-6.478 8.839,-17.943 8.839,-30.208 0,-10.2 -2.36,-19.981 -6.475,-26.83 v 0 a 3.1,3.1 0 0 0 -2.364,-1.792 z" />
      <polygon
         style="fill:#ffea87"
         id="polygon5042"
         points="528.776,630.733 574.096,630.733 568.816,673.962 534.056,673.962 " />
      <polygon
         id="polygon5044"
         style="opacity:0.26000001;mix-blend-mode:multiply;fill:#3d3d3d"
         points="551.896,673.962 550,630.733 528.776,630.733 534.056,673.962 " />
      <path
         style="fill:#1d2f3d"
         id="path5046"
         d="m 568.815,678.962 h -34.758 a 5,5 0 0 1 -4.963,-4.394 l -5.281,-43.229 a 5,5 0 0 1 4.963,-5.607 H 574.1 a 5,5 0 0 1 4.963,5.607 l -5.281,43.229 a 5,5 0 0 1 -4.967,4.394 z m -30.332,-10 h 25.906 l 4.059,-33.23 h -34.024 z" />
      <rect
         style="fill:#ff6259"
         id="rect5048"
         height="102.962"
         width="20"
         y="571"
         x="768.58099" />
      <path
         style="fill:#1d2f3d"
         id="path5050"
         d="m 788.581,678.962 h -20 a 5,5 0 0 1 -5,-5 V 571 a 5,5 0 0 1 5,-5 h 20 a 5,5 0 0 1 5,5 v 102.962 a 5,5 0 0 1 -5,5 z m -15,-10 h 10 V 576 h -10 z" />
      <rect
         style="fill:#f7b363"
         id="rect5052"
         height="96"
         width="23"
         y="577.96198"
         x="745.58099" />
      <path
         style="fill:#1d2f3d"
         id="path5054"
         d="m 768.581,678.962 h -23 a 5,5 0 0 1 -5,-5 v -96 a 5,5 0 0 1 5,-5 h 23 a 5,5 0 0 1 5,5 v 96 a 5,5 0 0 1 -5,5 z m -18,-10 h 13 v -86 h -13 z" />
      <rect
         style="fill:#0ac4dd"
         id="rect5056"
         transform="rotate(25.488,717.60929,625.96835)"
         height="90.961998"
         width="17.333"
         y="580.48102"
         x="708.93701" />
      <path
         style="fill:#1d2f3d"
         id="path5058"
         d="m 705.854,675.746 a 5.006,5.006 0 0 1 -2.151,-0.486 l -15.645,-7.46 a 5,5 0 0 1 -2.363,-6.665 l 39.143,-82.11 a 5,5 0 0 1 6.665,-2.362 l 15.646,7.459 a 5,5 0 0 1 2.363,6.665 L 710.368,672.9 a 5,5 0 0 1 -4.514,2.849 z m -8.98,-14.82 6.619,3.155 34.84,-73.081 -6.62,-3.155 z" />
      <rect
         style="fill:#f7b363"
         id="rect5060"
         height="18.156"
         width="89.741997"
         y="655.80603"
         x="587.14001" />
      <path
         style="fill:#1d2f3d"
         id="path5062"
         d="M 676.882,678.962 H 587.14 a 5,5 0 0 1 -5,-5 v -18.156 a 5,5 0 0 1 5,-5 h 89.742 a 5,5 0 0 1 5,5 v 18.156 a 5,5 0 0 1 -5,5 z m -84.742,-10 h 79.742 v -8.156 H 592.14 Z" />
      <rect
         style="fill:#8bb572"
         id="rect5064"
         height="18.156"
         width="85.246002"
         y="638"
         x="597.93799" />
      <path
         style="fill:#1d2f3d"
         id="path5066"
         d="m 683.184,660.156 h -85.246 a 5,5 0 0 1 -5,-5 V 637 a 5,5 0 0 1 5,-5 h 85.246 a 5,5 0 0 1 5,5 v 18.156 a 5,5 0 0 1 -5,5 z m -80.246,-10 h 75.246 V 642 h -75.246 z" />
      <rect
         style="fill:#976b50"
         id="rect5068"
         height="144.46201"
         width="80.996002"
         y="381.85699"
         x="256.22101" />
      <rect
         style="fill:#976b50"
         id="rect5070"
         height="144.46201"
         width="80.996002"
         y="381.85699"
         x="256.22101" />
      <rect
         id="rect5072"
         style="opacity:0.72000002;mix-blend-mode:screen;fill:#976b50"
         height="9.809"
         width="80.996002"
         y="381.85699"
         x="256.22101" />
      <rect
         id="rect5074"
         style="opacity:0.41000001;mix-blend-mode:multiply;fill:#976b50"
         height="11.476"
         width="80.996002"
         y="514.84302"
         x="256.22101" />
      <path
         style="fill:#1d2f3d"
         id="path5076"
         d="m 337.217,531.319 h -81 a 5,5 0 0 1 -5,-5 V 381.857 a 5,5 0 0 1 5,-5 h 81 a 5,5 0 0 1 5,5 v 144.462 a 5,5 0 0 1 -5,5 z m -76,-10 h 71 V 386.857 h -71 z" />
      <circle
         style="fill:#e7e0d0"
         id="circle5078"
         r="23.902"
         cy="429.37201"
         cx="295.73999" />
      <path
         id="path5080"
         style="mix-blend-mode:multiply;fill:#e7e0d0"
         d="m 271.839,429.372 a 23.9,23.9 0 1 1 47.8,0 z" />
      <path
         style="fill:#1d2f3d"
         id="path5082"
         d="m 295.74,457.273 a 27.9,27.9 0 1 1 27.9,-27.9 27.933,27.933 0 0 1 -27.9,27.9 z m 0,-47.8 a 19.9,19.9 0 1 0 19.9,19.9 19.925,19.925 0 0 0 -19.9,-19.903 z" />
      <circle
         style="fill:#1d2f3d"
         id="circle5084"
         r="9.0100002"
         cy="429.37201"
         cx="295.73999" />
      <circle
         style="fill:#e7e0d0"
         id="circle5086"
         r="14.799"
         cy="487.90701"
         cx="295.73999" />
      <path
         id="path5088"
         style="mix-blend-mode:multiply;fill:#e7e0d0"
         d="m 280.941,487.907 a 14.8,14.8 0 1 1 29.6,0 z" />
      <circle
         style="fill:#1d2f3d"
         id="circle5090"
         r="4.8850002"
         cy="487.90701"
         cx="295.73999" />
      <path
         style="fill:#1d2f3d"
         id="path5092"
         d="m 295.74,506.706 a 18.8,18.8 0 1 1 18.8,-18.8 18.82,18.82 0 0 1 -18.8,18.8 z m 0,-29.6 a 10.8,10.8 0 1 0 10.8,10.8 10.812,10.812 0 0 0 -10.8,-10.799 z" />
      <rect
         style="fill:#e7e0d0"
         id="rect5094"
         rx="16.906"
         height="117.725"
         width="117.725"
         y="159.60699"
         x="237.85699" />
      <path
         id="path5096"
         style="opacity:0.8199999;mix-blend-mode:multiply;fill:#e7e0d0"
         d="m 338.676,159.607 h -83.914 a 16.906,16.906 0 0 0 -16.9,16.906 v 15 a 16.906,16.906 0 0 1 16.905,-16.906 h 83.914 a 16.907,16.907 0 0 1 16.906,16.906 v -15 a 16.907,16.907 0 0 0 -16.911,-16.906 z" />
      <path
         style="fill:#1d2f3d"
         id="path5098"
         d="m 338.676,282.333 h -83.913 a 21.932,21.932 0 0 1 -21.907,-21.906 v -83.914 a 21.932,21.932 0 0 1 21.907,-21.906 h 83.913 a 21.931,21.931 0 0 1 21.906,21.906 v 83.914 a 21.931,21.931 0 0 1 -21.906,21.906 z M 254.763,164.607 a 11.92,11.92 0 0 0 -11.907,11.906 v 83.914 a 11.92,11.92 0 0 0 11.907,11.906 h 83.913 a 11.919,11.919 0 0 0 11.906,-11.906 v -83.914 a 11.919,11.919 0 0 0 -11.906,-11.906 z" />
      <path
         style="fill:#1d2f3d"
         id="path5100"
         d="M 297.469,221.47 H 271.62 a 3,3 0 0 1 0,-6 h 25.849 a 3,3 0 0 1 0,6 z" />
      <path
         style="fill:#1d2f3d"
         id="path5102"
         d="m 297.467,220.47 a 2,2 0 0 1 -1.68,-3.082 l 21.954,-34.137 a 2.0002325,2.0002325 0 1 1 3.364,2.165 l -21.954,34.136 a 2,2 0 0 1 -1.684,0.918 z" />
      <rect
         style="fill:#e7e0d0"
         id="rect5104"
         height="128"
         width="14"
         y="545.96198"
         x="788.58099" />
      <path
         style="fill:#1d2f3d"
         id="path5106"
         d="m 802.581,678.962 h -14 a 5,5 0 0 1 -5,-5 v -128 a 5,5 0 0 1 5,-5 h 14 a 5,5 0 0 1 5,5 v 128 a 5,5 0 0 1 -5,5 z m -9,-10 h 4 v -118 h -4 z" />
      <circle
         style="fill:#e7e0d0"
         id="circle5108"
         r="14.25"
         cy="577.75"
         cx="350" />
      <path
         style="fill:#1d2f3d"
         id="path5110"
         d="M 350,597 A 19.25,19.25 0 1 1 369.25,577.75 19.272,19.272 0 0 1 350,597 Z m 0,-28.5 a 9.25,9.25 0 1 0 9.25,9.25 9.26,9.26 0 0 0 -9.25,-9.25 z" />
      <circle
         style="fill:#e7e0d0"
         id="circle5112"
         r="14.25"
         cy="641.96198"
         cx="350" />
      <path
         style="fill:#1d2f3d"
         id="path5114"
         d="m 350,661.212 a 19.25,19.25 0 1 1 19.25,-19.25 19.272,19.272 0 0 1 -19.25,19.25 z m 0,-28.5 a 9.25,9.25 0 1 0 9.25,9.25 9.26,9.26 0 0 0 -9.25,-9.25 z" />
      <path
         style="fill:#1d2f3d"
         id="path5116"
         d="m 788.581,604.333 h -20 a 5,5 0 0 1 0,-10 h 20 a 5,5 0 0 1 0,10 z" />
      <path
         style="fill:#1d2f3d"
         id="path5118"
         d="m 768.581,614.962 h -23 a 5,5 0 0 1 0,-10 h 23 a 5,5 0 1 1 0,10 z" />
      <path
         style="fill:#1d2f3d"
         id="path5120"
         d="m 734.569,615.507 a 4.978,4.978 0 0 1 -2.147,-0.487 l -15.647,-7.459 a 5,5 0 0 1 4.3,-9.028 l 15.647,7.459 a 5,5 0 0 1 -2.156,9.515 z" />
      <path
         style="opacity:0.07000002;fill:#d1e3ed"
         id="path5122"
         d="M 654.747,275.084 H 597.038 L 444.721,427.4 a 9.8,9.8 0 0 0 9.72,8.561 h 39.428 z" />
      <polygon
         style="opacity:0.07000002;fill:#d1e3ed"
         id="polygon5124"
         points="701.669,275.084 672.814,275.084 511.936,435.962 540.791,435.962 " />
      <polygon
         style="opacity:0.07000002;fill:#d1e3ed"
         id="polygon5126"
         points="755.367,311.3 630.705,435.962 652.395,435.962 755.367,332.99 " />
      <path
         style="fill:#1d2f3d"
         id="path5128"
         d="m 616.062,660.156 a 5,5 0 0 1 -5,-5 V 637 a 5,5 0 0 1 10,0 v 18.156 a 5,5 0 0 1 -5,5 z" />
      <path
         style="fill:#1d2f3d"
         id="path5130"
         d="m 296.719,175.238 a 3,3 0 0 1 -3,-3 V 166.3 a 3,3 0 0 1 6,0 v 5.934 a 3,3 0 0 1 -3,3.004 z" />
      <path
         style="fill:#1d2f3d"
         id="path5132"
         d="m 296.719,273.637 a 3,3 0 0 1 -3,-3 V 264.7 a 3,3 0 0 1 6,0 v 5.935 a 3,3 0 0 1 -3,3.002 z" />
      <path
         style="fill:#1d2f3d"
         id="path5134"
         d="m 348.886,221.47 h -5.935 a 3,3 0 0 1 0,-6 h 5.935 a 3,3 0 0 1 0,6 z" />
      <path
         style="fill:#1d2f3d"
         id="path5136"
         d="m 250.487,221.47 h -5.934 a 3,3 0 0 1 0,-6 h 5.934 a 3,3 0 0 1 0,6 z" />
      <circle
         style="fill:#1d2f3d"
         id="circle5138"
         r="7.3330002"
         cy="218.47"
         cx="297.46899" />
      <path
         style="fill:#1d2f3d"
         id="path5140"
         d="m 650,678.962 a 5,5 0 0 1 -5,-5 v -17.806 a 5,5 0 0 1 10,0 v 17.806 a 5,5 0 0 1 -5,5 z" />
      <path
         style="fill:#1d2f3d"
         id="path5142"
         d="m 644.132,779.577 h -79.194 a 5,5 0 1 1 0,-10 h 79.194 a 5,5 0 0 1 0,10 z" />
      <path
         style="fill:#1d2f3d"
         id="path5144"
         d="m 547.45,779.577 h -17.3 a 5,5 0 0 1 0,-10 h 17.3 a 5,5 0 0 1 0,10 z" />
      <rect
         style="fill:#1d2f3d"
         id="rect5146"
         rx="5"
         height="17.381001"
         width="91.417"
         y="511.58099"
         x="359.25" />
    </g>
  </g>
</svg>
