{
  "title": "Black Mirror",
  "status": "waiting",
  "wikipedia": "https://en.wikipedia.org/wiki/Black_Mirror",
  "card": "/static/img/black-mirror.jpg",
  "currentSeasonNumber": 6,
  "numberOfSeasons": 6
}