{
  "title": "Breaking Bad",
  "status": "finished",
  "wikipedia": "https://en.wikipedia.org/wiki/Breaking_Bad",
  "card": "/static/img/breaking-bad.webp",
  "currentSeasonNumber": 5,
  "numberOfSeasons": 5
}
