{
  "title": "Doctor Who",
  "status": "waiting",
  "wikipedia": "https://en.wikipedia.org/wiki/Doctor_Who",
  "card": "/static/img/doctor-who.png",
  "currentSeasonNumber": 14,
  "numberOfSeasons": 14,
  "nextSeasonDate": ""
}