{
  "title": "DreamWorks Dragons",
  "status": "finished",
  "wikipedia": "https://en.wikipedia.org/wiki/DreamWorks_Dragons",
  "card": "/static/img/dreamworks-dragons.jpeg",
  "currentSeasonNumber": 8,
  "numberOfSeasons": 8
}
