{
  "title": "Locke & Key",
  "status": "finished",
  "wikipedia": "https://en.wikipedia.org/wiki/Locke_%26_Key_(TV_series)",
  "card": "/static/img/locke-key.jpg",
  "currentSeasonNumber": 3,
  "numberOfSeasons": 3,
  "nextSeasonDate": ""
}
