{
  "title": "Lost in Space",
  "status": "finished",
  "wikipedia": "https://en.wikipedia.org/wiki/Lost_in_Space_(2018_TV_series)",
  "card": "/static/img/lost-in-space.jpg",
  "currentSeasonNumber": 3,
  "numberOfSeasons": 3,
  "nextSeasonDate": ""
}
