{
  "title": "Once Upon a Time",
  "status": "finished",
  "wikipedia": "https://en.wikipedia.org/wiki/Once_Upon_a_Time_(TV_series)",
  "card": "/static/img/once-upon-a-time.jpg",
  "currentSeasonNumber": 7,
  "numberOfSeasons": 7
}
