{
  "title": "Shadowhunters",
  "status": "finished",
  "wikipedia": "https://en.wikipedia.org/wiki/Shadowhunters",
  "card": "/static/img/shadowhunters.jpg",
  "currentSeasonNumber": 3,
  "numberOfSeasons": 3
}
