{
  "wikipedia": "https://en.wikipedia.org/wiki/Snowpiercer_(TV_series)",
  "currentSeasonNumber": 4,
  "numberOfSeasons": 4,
  "title": "Snowpiercer",
  "status": "waiting",
  "card": "https://flxt.tmsimg.com/assets/p16954802_b_h10_aa.jpg",
  "nextSeasonDate": "(not yet on Netflix Canada)"
}