{
  "title": "Supernatural",
  "status": "finished",
  "wikipedia": "https://en.wikipedia.org/wiki/Supernatural_(American_TV_series)",
  "card": "/static/img/supernatural.jpg",
  "currentSeasonNumber": 15,
  "numberOfSeasons": 15
}
