{
  "wikipedia": "https://en.wikipedia.org/wiki/The_Billion_Dollar_Code",
  "currentSeasonNumber": 1,
  "numberOfSeasons": 1,
  "title": "The Billion Dollar Code",
  "status": "finished",
  "card": "/static/img/aaaabwv2n1aspsxm2x7d0izp2xasnsu7_xr2l5mmi8lhzlrkaot24gtl8rxxacpoe4ealthx6tztz500iam5n8ppsp-km3zm.jpg"
}
