{
  "title": "The Big Bang Theory",
  "status": "finished",
  "wikipedia": "https://en.wikipedia.org/wiki/The_Big_Bang_Theory",
  "card": "/static/img/the-big-bang-theory.png",
  "currentSeasonNumber": 10,
  "numberOfSeasons": 12
}
